Product Name,7-9,9-11,11-13,Total
Cappuccino Lrg,0.37034926320931366,0.3478520448316101,0.28179869195907625,36849.0
Cappuccino Sml,0.36192784828176244,0.3481534293455012,0.28991872237273636,35065.0
Princess,0.3109565567987098,0.36639451668178613,0.3226489265195041,29763.0
Peanut Butter Bomb Lrg,0.32016152293048744,0.3671041246034035,0.31273435246610903,27736.0
Peanut Butter Bomb Sml,0.27307934356392505,0.32899259330977393,0.397928063126301,20657.0
Americano Sml,0.34633816022502345,0.3532659652047088,0.30039587457026773,19198.0
Flu Shot,0.3993457638207393,0.34785737651292115,0.2527968596663395,15285.0
"Smashed Avo, Poached Eggs & Toast",0.2916780541131457,0.3670401749111779,0.3412817709756764,14636.0
Strawberry Stinger Sml,0.25338261961221925,0.33540242711675267,0.411214953271028,14338.0
Prince,0.3077268307278031,0.3609095669085197,0.3313636023636772,13369.0
Berry Dairy  Lrg,0.32433878611833056,0.36309432808439074,0.3125668857972787,13082.0
Peanut Butter Bliss Lrg,0.3424275306154085,0.3567663928073167,0.3008060765772748,12902.0
Berry Dairy Sml,0.2637474541751528,0.3351088829703901,0.40114366285445713,12766.0
Americano Lrg,0.34094734311132485,0.3564158050813497,0.30263685180732547,12477.0
Peanut Butter Bliss Sml,0.28172817281728174,0.3193683004664103,0.398903526716308,12221.0
Power Oats,0.3357142857142857,0.35044642857142855,0.3138392857142857,11200.0
Breakfast Bowl,0.32583559168925025,0.36711833785004516,0.3070460704607046,11070.0
Chipotle Steak,0.30481232863760993,0.359270114399168,0.33591755696322206,10577.0
Flat White,0.3542956656346749,0.34645897832817335,0.2992453560371517,10336.0
Strawberry Stinger Lrg,0.2803054406617881,0.3759677590412557,0.3437268002969562,9429.0
Moroccan,0.3309498399146211,0.33863393810032016,0.3304162219850587,9370.0
Spicy Burrito,0.3292297635908051,0.3383810872644079,0.332389149144787,9179.0
All the Greens Sml,0.0,0.30339168490153173,0.6966083150984683,9140.0
All the Greens Lrg,0.0,0.39490281889561074,0.6050971811043893,7769.0
Cappuccino Freeze Sml,0.2477992379450795,0.3301800026277756,0.4220207594271449,7611.0
Salsa Quesadilla,0.2990028684605928,0.3648408687337795,0.33615626280562766,7321.0
Cappuccino Muffin,0.33872976338729766,0.36391310363913104,0.2973571329735713,7227.0
Gem Sml,0.27480282274802825,0.33194963331949634,0.39324754393247546,7227.0
Still Water - Large,0.29442823398638324,0.37279421981381133,0.3327775461998055,7197.0
Citrus Glo Sml,0.3275350021213407,0.33008061094611796,0.34238438693254136,7071.0
Cappuccino Freeze Lrg,0.30052400509842797,0.3741679648774961,0.32530803002407593,7061.0
Still Water - Small,0.2901532349602724,0.36932463110102154,0.340522133938706,7048.0
Tropical Chicken,0.2966234506339934,0.36757372845134634,0.3358028209146602,7019.0
Protein Breakfast Wrap,0.32465302618400343,0.3494062097581914,0.32594076405780514,6989.0
Salt Caramel Lrg,0.333816075307748,0.35061549601737874,0.3155684286748733,6905.0
Salt Caramel Sml,0.2766637605347283,0.3096483580354548,0.41368788142981694,6882.0
Gem Lrg,0.299566711489616,0.37666218437173166,0.32377110413865234,6693.0
Harvest,0.2821917808219178,0.34687975646879754,0.37092846270928465,6570.0
Almond Porridge Pot,0.5123647604327666,0.32086553323029365,0.16676970633693972,6470.0
Cinnabomb Lrg,0.3121989121989122,0.37264957264957266,0.3151515151515151,6435.0
Cinnabomb Sml,0.28388906201308817,0.33250233717669053,0.38360860081022125,6418.0
Ginger Snap Sml,0.3375374428503862,0.3187766041305376,0.3436859530190762,6343.0
Peanut Butter Berry Sml,0.2766798418972332,0.3214756258234519,0.4018445322793149,6072.0
Superfood Muffin,0.34152913438868304,0.36089592455372177,0.29757494105759513,5938.0
Peanut Butter Berry Lrg,0.3283836832223929,0.35176651305683565,0.3198498037207715,5859.0
Natures Protein Lrg,0.3132467532467533,0.35948051948051946,0.32727272727272727,5775.0
Ginger Snap Lrg,0.3578653644925009,0.38001395186606207,0.26212068364143704,5734.0
Citrus Glo Lrg,0.34372264051829804,0.3776921729994747,0.2785851864822273,5711.0
Vitamin See Sml,0.2886507378777231,0.3323963457484188,0.37895291637385803,5692.0
Mango Berry Sml,0.23987817986384807,0.34055893944822646,0.41956288068792547,5582.0
Natures Protein Sml,0.2331511839708561,0.32550091074681237,0.44134790528233153,5490.0
Sunrise Wrap,0.3160908570337851,0.35312082458484445,0.3307883183813705,5239.0
Daily Greens Sml,0.32455803228285934,0.345695618754804,0.3297463489623367,5204.0
Protein Egg Pot,0.3797060599959734,0.3567545802295148,0.26353935977451176,4967.0
Veg Mexi Fresh Wrap,0.26278552658176674,0.3282797655144532,0.40893470790378006,4947.0
Pesto Egg Pot,0.36720032840722494,0.3495484400656814,0.2832512315270936,4872.0
Daily Greens Lrg,0.32974683544303796,0.3852320675105485,0.2850210970464135,4740.0
Choc Nut Sml,0.0,0.35250266240681577,0.6474973375931843,4695.0
Butta Chicken,0.3533190578158458,0.34710920770877945,0.2995717344753747,4670.0
Ginger Shot 25ml,0.3234573401648474,0.36489195811984854,0.31165070171530407,4489.0
Cafe Latte Lrg,0.34514078110808355,0.3655767484105359,0.28928247048138056,4404.0
Vitamin See Lrg,0.3375796178343949,0.3562329390354868,0.3061874431301183,4396.0
Protein Bar - Dark Chocolate Peanut Butter,0.3456221198156682,0.34838709677419355,0.30599078341013825,4340.0
Espresso Dbl,0.3333333333333333,0.3527998077385244,0.31386685892814226,4161.0
Tropical Greens Lrg,0.6616052060737527,0.3383947939262473,0.0,4149.0
Mango Berry Lrg,0.2903540903540904,0.36874236874236876,0.3409035409035409,4095.0
Scram Eggs & Toast,0.3474950884086444,0.36026522593320237,0.2922396856581532,4072.0
Smashed Avo Toast,0.29253878355084956,0.3442501846835755,0.36321103176557495,4061.0
Nut Milk Lrg,0.2815338042381433,0.37184661957618564,0.346619576185671,3964.0
Nut Milk Sml,0.2401614530776993,0.3077699293642785,0.4520686175580222,3964.0
Thai Crunch,0.3426951816542128,0.3581551146611698,0.29914970368461735,3881.0
Pesto Mushroom Toast,0.23924221921515562,0.36617050067658996,0.3945872801082544,3695.0
Sparkling Water - Small,0.2716907675194661,0.382091212458287,0.34621802002224694,3596.0
Cajun Chicken Wrap,0.0,0.4338935574229692,0.5661064425770308,3570.0
Cheesy Chicken Wrap,0.28121452894438137,0.3822360953461975,0.3365493757094211,3524.0
Choc Nut Lrg,0.0,0.41109205260148657,0.5889079473985135,3498.0
Protein Bar - Vanilla Choc Chip,0.3631609529343405,0.35328297501452643,0.28355607205113303,3442.0
Tropical Greens Sml,0.6865322816243061,0.31317557697925796,0.00029214139643587495,3423.0
Mexi Fresh Veg Bowl,0.3092511013215859,0.32863436123348017,0.36211453744493394,3405.0
Choc Protein Smoothie Bowl,0.29260257562144354,0.3857442348008386,0.3216531895777179,3339.0
Thai Crunch Salad,0.3088790931989924,0.3869647355163728,0.30415617128463474,3176.0
Floo Fighter,0.45407835581245987,0.32915863840719334,0.21676300578034682,3114.0
VEG Plant Power Wrap,0.31384715871979096,0.3236446766819073,0.36250816459830176,3062.0
Floo Juice Sml,0.3292882912430305,0.36438176451295506,0.30632994424401444,3049.0
Hot Chocolate Sml,0.3956448911222781,0.3269681742043551,0.27738693467336684,2985.0
Balanced Breakfast,0.33402561439944617,0.35202492211838005,0.3139494634821738,2889.0
Banana,0.31692418253683075,0.33812432626661876,0.3449514911965505,2783.0
Spring Tuna Wrap,0.0,0.4335766423357664,0.5664233576642336,2740.0
Asian Rainbow,0.36753389519970686,0.3499450348112862,0.28252106998900695,2729.0
Lemon Cucumber Cooler Sml,0.26784313725490194,0.37607843137254904,0.356078431372549,2550.0
Cafe Latte Sml,0.3778040141676505,0.31995277449822906,0.3022432113341204,2541.0
Chipotle Steak Salad,0.2668250197941409,0.3919239904988123,0.3412509897070467,2526.0
Ginger Shot 50ml,0.3459616985845129,0.3825978351373855,0.2714404662781016,2402.0
Sunrise Unwrapped,0.3403185247275775,0.3562447611064543,0.3034367141659681,2386.0
Chai Latte Lrg,0.37373737373737376,0.35058922558922556,0.2756734006734007,2376.0
Protein Bar - Cappuccino,0.3693101830126701,0.33599249178789303,0.29469732519943687,2131.0
Floo Juice Lrg,0.3535781544256121,0.352165725047081,0.294256120527307,2124.0
Protein Egg Bowl,0.3281872509960159,0.3461155378486056,0.3256972111553785,2008.0
Milk Tart Lrg,0.6842369477911646,0.3157630522088353,0.0,1992.0
Red Cappuccino Lrg,0.39134808853118713,0.3727364185110664,0.23591549295774647,1988.0
Rooibos Tea,0.3865927419354839,0.37348790322580644,0.2399193548387097,1984.0
Tropical Chia Sml,0.0,0.3944303797468354,0.6055696202531645,1975.0
Ceylon Tea,0.34647302904564314,0.3552904564315353,0.29823651452282157,1928.0
Milk Tart Sml,0.7011434511434511,0.29885654885654883,0.0,1924.0
Strawberry Stinger 250,0.3106694560669456,0.37813807531380755,0.3111924686192469,1912.0
Lemon Cucumber Cooler Lrg,0.25054229934924077,0.41268980477223427,0.33676789587852496,1844.0
Chai Latte Sml,0.41099773242630383,0.30385487528344673,0.28514739229024944,1764.0
Espresso Sng,0.272572402044293,0.3441226575809199,0.3833049403747871,1761.0
Red Cappuccino Sml,0.3789173789173789,0.3783475783475784,0.24273504273504273,1755.0
Steak Spicy Burrito,0.36556064073226546,0.35297482837528604,0.2814645308924485,1748.0
Tropical Chia Lrg,0.0,0.49733570159857904,0.5026642984014209,1689.0
Tropical Yoghurt Pot,0.0,0.44457617071724953,0.5554238292827505,1687.0
Protein Bar - Peanut Butter,0.2904191616766467,0.36706586826347304,0.34251497005988024,1670.0
"Protein Plate Brown Rice, Quinoa and Salsa",0.33880778588807786,0.3564476885644769,0.30474452554744524,1644.0
Anti Oxidant Lrg,0.6838868388683886,0.3161131611316113,0.0,1626.0
Hot Chocolate Lrg,0.4150591163658992,0.3310516490354698,0.253889234598631,1607.0
Malay Chicken Low Carb W,0.730625,0.269375,0.0,1600.0
Chicken Cajun Salad,0.0,0.43239795918367346,0.5676020408163265,1568.0
Tuna Protein,0.6802063185041909,0.31979368149580917,0.0,1551.0
Peanut Butter Berry Smoothie Bowl,0.0,0.38293216630196936,0.6170678336980306,1371.0
Plant Power Salad,0.32323996971990915,0.32172596517789553,0.3550340651021953,1321.0
Cheesy Egg Wrap,0.2651975683890577,0.3943768996960486,0.3404255319148936,1316.0
Anti Oxidant Sml,0.6929012345679012,0.30709876543209874,0.0,1296.0
Dragon Fire Sml,0.27666151468315303,0.4080370942812983,0.31530139103554866,1294.0
Pesto Egg Bowl,0.34651162790697676,0.3395348837209302,0.313953488372093,1290.0
Decaf Cappuccino Sml,0.32028753993610226,0.39217252396166136,0.28753993610223644,1252.0
Protein Ball - Peanut Butter Bomb,0.32773780975219824,0.37889688249400477,0.293365307753797,1251.0
Vegiterian Protein Pot Salad,0.0,0.45045045045045046,0.5495495495495496,1221.0
Decaf Cappuccino Lrg,0.3771712158808933,0.35153019023986765,0.27129859387923905,1209.0
Steak Moroccan Wrap,0.3087136929460581,0.35435684647302906,0.3369294605809129,1205.0
Heart Beet Sml,0.6949152542372882,0.3050847457627119,0.0,1121.0
VEG Moroccan Wrap,0.3198562443845463,0.34052111410601976,0.33962264150943394,1113.0
Winter Nourish Veg Bowl,0.7849264705882353,0.21507352941176472,0.0,1088.0
Raw Bar - Cocoa Nut,0.3062558356676004,0.3464052287581699,0.3473389355742297,1071.0
Peanut Butter Bliss 250,0.2964426877470356,0.3804347826086957,0.3231225296442688,1012.0
Little Princess Wrap,0.3125,0.35615079365079366,0.33134920634920634,1008.0
Raw Bar - Goji & Acai Berry,0.325437693099897,0.349124613800206,0.325437693099897,971.0
Organic Green Tea,0.34410844629822734,0.3607924921793535,0.29509906152241916,959.0
Skinny Hot Chocolate Sml,0.5109947643979058,0.2963350785340314,0.19267015706806281,955.0
Dragon Fire Lrg,0.27611044417767105,0.39735894357743096,0.32653061224489793,833.0
Poached Egg & Toast,0.3219927095990279,0.32806804374240583,0.34993924665856624,823.0
Mexi Fresh Chicken Bowl,0.38558786346396967,0.35398230088495575,0.2604298356510746,791.0
LF Protein Choc Shake Sml,0.27320954907161804,0.3806366047745358,0.34615384615384615,754.0
Heart Beet Lrg,0.6932599724896836,0.30674002751031637,0.0,727.0
VEG Thai Crunch Wrap,0.20943134535367544,0.39667128987517336,0.39389736477115117,721.0
Tuna Protein Salad,0.620253164556962,0.37834036568213786,0.0014064697609001407,711.0
Decaf Americano Lrg,0.37664233576642336,0.3372262773722628,0.28613138686131384,685.0
LF Protein Choc Shake Lrg,0.28989751098096633,0.383601756954612,0.32650073206442165,683.0
Mexi Egg Pot,0.7406855439642325,0.2593144560357675,0.0,671.0
Seed Snack - Salt & Vinegar,0.34776119402985073,0.3582089552238806,0.29402985074626864,670.0
Protein Ball - Cacao Bomb,0.25386996904024767,0.3761609907120743,0.369969040247678,646.0
Protein Plate Brocolli,0.3265625,0.3796875,0.29375,640.0
VEG Princess Wrap,0.29365079365079366,0.35555555555555557,0.35079365079365077,630.0
Free Range Biltong Sliced,0.3248,0.3904,0.2848,625.0
Decaf Americano Sml,0.3557377049180328,0.35737704918032787,0.28688524590163933,610.0
Peanut Butter Toast,0.34523809523809523,0.3520408163265306,0.30272108843537415,588.0
Apple,0.2945326278659612,0.3544973544973545,0.3509700176366843,567.0
Chicken Mexi Fresh Wrap,0.3678373382624769,0.32717190388170053,0.3049907578558225,541.0
Free Range Biltong Snack Sticks,0.3339517625231911,0.35435992578849723,0.3116883116883117,539.0
Gem 250,0.30223880597014924,0.38619402985074625,0.31156716417910446,536.0
Avo Kale Caesar Salad,0.659047619047619,0.34095238095238095,0.0,525.0
Raw Mixed Nuts,0.30879345603271985,0.34355828220858897,0.3476482617586912,489.0
Protein Plate,0.44782608695652176,0.3282608695652174,0.22391304347826088,460.0
Seed Snack - Dark Choc Berry,0.3689095127610209,0.382830626450116,0.2482598607888631,431.0
Parmesan Greens Salad,0.0,0.412568306010929,0.587431693989071,366.0
Chicken Mayo Sandwich,0.3407202216066482,0.3850415512465374,0.2742382271468144,361.0
VEG Spicy Burrito Wrap,0.26706231454005935,0.314540059347181,0.41839762611275966,337.0
Chicken Mayo Deluxe Sandwich,0.40923076923076923,0.36923076923076925,0.22153846153846155,325.0
LF Protein Nat Shake Sml,0.3333333333333333,0.3888888888888889,0.2777777777777778,324.0
Steak Mexi Fresh Wrap,0.3980891719745223,0.3471337579617834,0.25477707006369427,314.0
Protein Ball - Salted Caramel Bomb,0.5472312703583062,0.36156351791530944,0.09120521172638436,307.0
Scrambled Egg on Toast (New Winter Name - Little Scrambled Egg on Toast),0.3127035830618892,0.3322475570032573,0.3550488599348534,307.0
Chipotle Chicken,0.25412541254125415,0.3927392739273927,0.35313531353135313,303.0
Protein Ball - Berry Bomb,0.504950495049505,0.39933993399339934,0.09570957095709572,303.0
Mexi Fresh Steak Bowl,0.38095238095238093,0.32653061224489793,0.2925170068027211,294.0
Mint Tea,0.36769759450171824,0.32989690721649484,0.3024054982817869,291.0
Protein Ball - Cinnabomb,0.3923611111111111,0.4305555555555556,0.17708333333333334,288.0
Peanut Butter Berry 250,0.3176895306859206,0.37545126353790614,0.30685920577617326,277.0
VEG AsianRainbow,0.2967032967032967,0.34065934065934067,0.3626373626373626,273.0
Chai Tea Sml,0.3371212121212121,0.4356060606060606,0.22727272727272727,264.0
VEG Thai Crunch Salad,0.2159090909090909,0.3068181818181818,0.4772727272727273,264.0
LF Protein Nat Shake Lrg,0.32936507936507936,0.3492063492063492,0.32142857142857145,252.0
Chicken Cobb Salad,0.6829268292682927,0.3170731707317073,0.0,246.0
Chicken Avo Kale Caesar,0.6597510373443983,0.34024896265560167,0.0,241.0
Superfood Vegetarian Salad,0.23236514522821577,0.3941908713692946,0.37344398340248963,241.0
Winter Nourish Chicken Bowl,0.7916666666666666,0.20833333333333334,0.0,216.0
Mexi Egg Bowl,0.7209302325581395,0.27906976744186046,0.0,215.0
STK AsianRainbow,0.33175355450236965,0.3222748815165877,0.3459715639810427,211.0
Harvest Chichen,0.2676767676767677,0.41919191919191917,0.31313131313131315,198.0
Chicken Cheddar Flat Wrap,0.30857142857142855,0.3485714285714286,0.34285714285714286,175.0
Chicken Protein Pot Salad,0.0,0.3699421965317919,0.630057803468208,173.0
Decaf Flat White,0.3475609756097561,0.4268292682926829,0.22560975609756098,164.0
Decaf Cafe Latte Lrg,0.3148148148148148,0.3765432098765432,0.30864197530864196,162.0
MUSH Moroccan Wrap,0.2670807453416149,0.35403726708074534,0.37888198757763975,161.0
Chicken Mayo Deluxe Wrap,0.3935483870967742,0.36774193548387096,0.23870967741935484,155.0
White Cheddar Sandwich,0.23972602739726026,0.4452054794520548,0.3150684931506849,146.0
Chicken Mayo Wrap,0.42758620689655175,0.22758620689655173,0.3448275862068966,145.0
Decaf Cafe Latte Sml,0.37037037037037035,0.4148148148148148,0.21481481481481482,135.0
VEG Cobb Salad,0.6716417910447762,0.3283582089552239,0.0,134.0
Avo Salad Sandwich,0.2932330827067669,0.3684210526315789,0.3383458646616541,133.0
Chipotle Chicken Salad,0.2698412698412698,0.46825396825396826,0.2619047619047619,126.0
MUSH Thai Crunch Salad,0.275,0.2916666666666667,0.43333333333333335,120.0
Sweet Chili Chicken Wrap,0.35,0.35,0.3,120.0
Mexi Fresh Mush Bowl,0.36363636363636365,0.3,0.33636363636363636,110.0
Butta Veg Bowl,0.3333333333333333,0.28703703703703703,0.37962962962962965,108.0
Veg Cajun Chicken Wrap,0.0,0.46153846153846156,0.5384615384615384,104.0
Orange,0.31521739130434784,0.44565217391304346,0.2391304347826087,92.0
CHK PlantPwr SLD,0.2413793103448276,0.45977011494252873,0.2988505747126437,87.0
VEG Tropical Chicken Wra,0.3023255813953488,0.5116279069767442,0.18604651162790697,86.0
Chicken Parmesan Greens Salad,0.0,0.4533333333333333,0.5466666666666666,75.0
Butta Stk Bowl,0.3380281690140845,0.323943661971831,0.3380281690140845,71.0
MUSH Princess Wrap,0.29577464788732394,0.4647887323943662,0.23943661971830985,71.0
Mushroom Mexi Fresh Wrap,0.2857142857142857,0.32857142857142857,0.38571428571428573,70.0
Steak Tropical Wrap,0.19402985074626866,0.5074626865671642,0.29850746268656714,67.0
Peanut Butter + Banana Yoghurt Pot (New Winter Name - Peanut Butter Cup),0.3709677419354839,0.41935483870967744,0.20967741935483872,62.0
Chicken Plant Power Wrap,0.3333333333333333,0.45,0.21666666666666667,60.0
Decaf Espresso Dbl,0.3333333333333333,0.3157894736842105,0.3508771929824561,57.0
Steak Thai Crunch Salad,0.2807017543859649,0.43859649122807015,0.2807017543859649,57.0
Malay Steak Low Carb Wra,0.7678571428571429,0.23214285714285715,0.0,56.0
MUSH Spicy Burrito Wrap,0.2727272727272727,0.509090909090909,0.21818181818181817,55.0
Winter Nourish Steak Bowl,0.75,0.25,0.0,52.0
MUSH Asian Rainbow Bowl,0.23529411764705882,0.45098039215686275,0.3137254901960784,51.0
Breakfast Sandwich,0.0,0.44,0.56,50.0
Mush Plant Power Wrap,0.34782608695652173,0.32608695652173914,0.32608695652173914,46.0
Steak Thai Crunch Wrap,0.2619047619047619,0.47619047619047616,0.2619047619047619,42.0
Superfood Chicken Salad,0.325,0.525,0.15,40.0
MUSH Thai Crunch Wrap,0.3157894736842105,0.5526315789473685,0.13157894736842105,38.0
MUSH Butta Chicken,0.24324324324324326,0.5675675675675675,0.1891891891891892,37.0
Malay Veg Low Carb Wrap,0.7567567567567568,0.24324324324324326,0.0,37.0
Peanut Butter Cup,0.34375,0.4375,0.21875,32.0
Steak Cajun Chicken Wrap,0.0,0.40625,0.59375,32.0
Veg Cajun Salad,0.0,0.40625,0.59375,32.0
Mush Chipotle Wrap,0.1,0.6,0.3,30.0
Steak Protein Pot Salad,0.0,0.3793103448275862,0.6206896551724138,29.0
Harvest Steak,0.13793103448275862,0.5862068965517241,0.27586206896551724,29.0
Veg Spring Tuna Wrap,0.0,0.6551724137931034,0.3448275862068966,29.0
Mush Cajun Chicken Wrap,0.0,0.8214285714285714,0.17857142857142858,28.0
Harvest Mushroom,0.4074074074074074,0.4444444444444444,0.14814814814814814,27.0
Yoghurt Pot,0.04,0.4,0.56,25.0
Rasberry Yoghurt Pot,0.2608695652173913,0.2608695652173913,0.4782608695652174,23.0
Steak Parmesan Greens Salad,0.0,0.43478260869565216,0.5652173913043478,23.0
Tropical Yoghurt Crunch,0.0,0.9545454545454546,0.045454545454545456,22.0
White Cheddar & Tomato Sandwich,0.42857142857142855,0.19047619047619047,0.38095238095238093,21.0
MUSH Plant Power Salad,0.19047619047619047,0.42857142857142855,0.38095238095238093,21.0
Decaf Espresso Sng,0.5789473684210527,0.3157894736842105,0.10526315789473684,19.0
Steak Avo Kale Caesar Sa,0.7777777777777778,0.2222222222222222,0.0,18.0
Chipotle Veg Salad,0.058823529411764705,0.6470588235294118,0.29411764705882354,17.0
Steak Cobb Salad,0.875,0.125,0.0,16.0
MUSH Tropical Wrap,0.13333333333333333,0.6666666666666666,0.2,15.0
Berry Dairy Smoothie Bowl,0.0,0.8,0.2,15.0
Egg Panini,0.6428571428571429,0.35714285714285715,0.0,14.0
Tuna Protein Mushroom,0.8571428571428571,0.14285714285714285,0.0,14.0
Steak Cajun Salad,0.0,0.5714285714285714,0.42857142857142855,14.0
Steak Plant Power Salad,0.5714285714285714,0.42857142857142855,0.0,14.0
Steak Plant Power Wrap,0.21428571428571427,0.7142857142857143,0.07142857142857142,14.0
Mush Cajun Salad,0.0,0.38461538461538464,0.6153846153846154,13.0
Chicken Caesar Wrap,0.6153846153846154,0.38461538461538464,0.0,13.0
Hot Oats,0.7692307692307693,0.15384615384615385,0.07692307692307693,13.0
MUSH Chipotle Salad,0.15384615384615385,0.3076923076923077,0.5384615384615384,13.0
Chocolate Bliss Sml,0.5833333333333334,0.4166666666666667,0.0,12.0
Winter Nourish Mushroom Bowl,0.9166666666666666,0.08333333333333333,0.0,12.0
Mexi,0.6666666666666666,0.3333333333333333,0.0,12.0
Malay Mush Low Carb Wrap,0.4166666666666667,0.5833333333333334,0.0,12.0
Cinnamon Honey Oats,0.0,0.9,0.1,10.0
MUSH Prince Wrap,0.1111111111111111,0.6666666666666666,0.2222222222222222,9.0
VEG Mexi Bowl,0.7777777777777778,0.2222222222222222,0.0,9.0
Carb Conscious Protein Plate,0.6666666666666666,0.2222222222222222,0.1111111111111111,9.0
Muchroom Protein Pot Salad,0.0,0.375,0.625,8.0
MUSH Mexi Bowl,0.75,0.25,0.0,8.0
Superfood Mushroom Salad,0.16666666666666666,0.6666666666666666,0.16666666666666666,6.0
Chocolate Bliss Lrg,0.3333333333333333,0.6666666666666666,0.0,6.0
Mush Parmesan Greens Salad,0.0,0.4,0.6,5.0
MUSH Tuna Protein Salad,0.3333333333333333,0.6666666666666666,0.0,3.0
Mexi Bowl Steak,1.0,0.0,0.0,3.0
MUSH Cobb Salad,1.0,0.0,0.0,2.0
Smoked Trout Scrambled Eggs,0.0,1.0,0.0,1.0
